{
  "status": true,
  "response": {
    "content": [
      {
        "id": "f352d778-0054-4f0b-b39a-e04f44b138da",
        "state": 2,
        "status": "ACTIVE",
        "createdAt": "2024-11-27T08:22:13.265+00:00",
        "updatedAt": "2024-11-29T08:12:56.457+00:00",
        "createdBy": null,
        "updatedBy": null,
        "code": "340104060274",
        "lodaHouseholdCode": "340104060274",
        "memberCode": "17381480",
        "villageId": "b9c02962-f20f-42cc-9e0e-44e7bf9880eb",
        "firstName": "Xxx",
        "lastName": "MUSABYIMANA",
        "fullName": null,
        "nationalId": "1199480047080064",
        "dateOfBirth": "1994-01-01",
        "gender": "MALE",
        "size": 3,
        "creationDate": "2024-06-29",
        "migrationStatus": "FINISHED",
        "srisMigrationStatus": "PENDING",
        "civilStatus": "SINGLE"
      },
      {
        "id": "50d525c1-d554-46c6-8295-2b88dcf4e1d4",
        "state": 1,
        "status": "ACTIVE",
        "createdAt": "2024-11-27T08:40:11.113+00:00",
        "updatedAt": "2024-11-29T08:48:14.301+00:00",
        "createdBy": null,
        "updatedBy": null,
        "code": "110903070071",
        "lodaHouseholdCode": "110903070071",
        "memberCode": "12210160",
        "villageId": "f2df6dfa-336c-4c48-afc6-0bf2990ffa83",
        "firstName": "FLORENCE",
        "lastName": "MUKANEZA",
        "fullName": null,
        "nationalId": "1199270019718090",
        "dateOfBirth": "1992-01-01",
        "gender": "MALE",
        "size": 1,
        "creationDate": "2024-07-01",
        "migrationStatus": "FINISHED",
        "srisMigrationStatus": "PENDING",
        "civilStatus": "SINGLE"
      },
      {
        "id": "e8f008b5-906e-4b96-8268-a3a1773ab6e6",
        "state": 2,
        "status": "ACTIVE",
        "createdAt": "2024-11-27T08:40:11.114+00:00",
        "updatedAt": "2024-11-29T05:32:39.406+00:00",
        "createdBy": null,
        "updatedBy": null,
        "code": "110903070072",
        "lodaHouseholdCode": "110903070072",
        "memberCode": "17470940",
        "villageId": "f2df6dfa-336c-4c48-afc6-0bf2990ffa83",
        "firstName": "Danny",
        "lastName": "KIZA",
        "fullName": null,
        "nationalId": "1199480144580117",
        "dateOfBirth": "1994-05-06",
        "gender": "MALE",
        "size": 2,
        "creationDate": "2024-07-01",
        "migrationStatus": "FINISHED",
        "srisMigrationStatus": "PENDING",
        "civilStatus": "SINGLE"
      },
      {
        "id": "7c4dc6b6-0d45-49bd-bd40-e2bbef2c3820",
        "state": 1,
        "status": "ACTIVE",
        "createdAt": "2024-11-27T08:40:11.117+00:00",
        "updatedAt": "2024-11-29T07:15:15.102+00:00",
        "createdBy": null,
        "updatedBy": null,
        "code": "110903070069",
        "lodaHouseholdCode": "110903070069",
        "memberCode": "17165097",
        "villageId": "f2df6dfa-336c-4c48-afc6-0bf2990ffa83",
        "firstName": "Theogene",
        "lastName": "SENDAHAGARWA",
        "fullName": null,
        "nationalId": "1199080166887089",
        "dateOfBirth": "1990-01-01",
        "gender": "MALE",
        "size": 1,
        "creationDate": "2024-07-01",
        "migrationStatus": "FINISHED",
        "srisMigrationStatus": "PENDING",
        "civilStatus": "SINGLE"
      },
      {
        "id": "dc46ad6b-67b3-4f2f-87d2-6b1a42872094",
        "state": 1,
        "status": "ACTIVE",
        "createdAt": "2024-11-27T08:40:11.095+00:00",
        "updatedAt": "2024-12-02T16:45:27.598+00:00",
        "createdBy": null,
        "updatedBy": null,
        "code": "110903072015",
        "lodaHouseholdCode": "110903072015",
        "memberCode": "10697099",
        "villageId": "f2df6dfa-336c-4c48-afc6-0bf2990ffa83",
        "firstName": "Stiven",
        "lastName": "NDAYISHIMIYE",
        "fullName": null,
        "nationalId": "1199180172022040",
        "dateOfBirth": "1991-01-01",
        "gender": "MALE",
        "size": 1,
        "creationDate": "2024-07-01",
        "migrationStatus": "PENDING",
        "srisMigrationStatus": "PENDING",
        "civilStatus": "SINGLE"
      }
    ],
    "pageable": {
      "sort": {
        "unsorted": true,
        "sorted": false,
        "empty": true
      },
      "pageNumber": 0,
      "pageSize": 5,
      "offset": 0,
      "paged": true,
      "unpaged": false
    },
    "totalElements": 429451,
    "totalPages": 85891,
    "last": false,
    "numberOfElements": 5,
    "size": 5,
    "number": 0,
    "sort": {
      "unsorted": true,
      "sorted": false,
      "empty": true
    },
    "first": true,
    "empty": false
  },
  "message": "success.message"
}
