{
  "status": true,
  "response": {
    "content": [
      {
        "id": "d67e6dc5-7de9-4a69-b8bc-de2b81ade1b0",
        "code": "24-9394-1428-11",
        "lodaCode": "24-9394-1428-11",
        "size": 1,
        "score": 0.32,
        "scoringStatus": "FINISHED",
        "ubudeheCategory": null,
        "head": {
          "id": "1527611d-ee84-424a-be52-eec5de081ddf",
          "firstName": "Xxx",
          "lastName": "IMANIRIHO",
          "documentNumber": "1199980114135072",
          "identificationType": "NATIONAL_ID",
          "dateOfBirth": "1999-01-15",
          "gender": "MALE",
          "civilStatus": "SINGLE",
          "membershipType": "HEAD",
          "fullName": "Xxx IMANIRIHO"
        },
        "villageId": "70f3b7b1-0797-499c-b070-ca87f13cb58f",
        "status": "ACTIVE",
        "changeStatusReason": null,
        "targetGroup": null,
        "villageLocation": null,
        "cutOff": null,
        "members": null,
        "level": null
      },
      {
        "id": "1ed938da-ebbc-43e8-9254-844ad4f60873",
        "code": "24-4406-6988-11",
        "lodaCode": "24-4406-6988-11",
        "size": 1,
        "score": 0.32,
        "scoringStatus": "FINISHED",
        "ubudeheCategory": null,
        "head": {
          "id": "cbf6be60-4bb5-4a8c-a687-6ac8199676eb",
          "firstName": "Joseph",
          "lastName": "IMANIRAKIZA",
          "documentNumber": "1198680097997011",
          "identificationType": "NATIONAL_ID",
          "dateOfBirth": "1986-06-05",
          "gender": "MALE",
          "civilStatus": "SINGLE",
          "membershipType": "HEAD",
          "fullName": "Joseph IMANIRAKIZA"
        },
        "villageId": "70f3b7b1-0797-499c-b070-ca87f13cb58f",
        "status": "ACTIVE",
        "changeStatusReason": null,
        "targetGroup": null,
        "villageLocation": null,
        "cutOff": null,
        "members": null,
        "level": null
      },
      {
        "id": "827ff07a-752f-4856-bfef-576e1c4be462",
        "code": "24-9215-7393-11",
        "lodaCode": "24-9215-7393-11",
        "size": 1,
        "score": 0.32,
        "scoringStatus": "FINISHED",
        "ubudeheCategory": null,
        "head": {
          "id": "3dc2d38a-5ab7-413a-83fc-046f4d9d3cb3",
          "firstName": "Xxx",
          "lastName": "IMANIRAGABA",
          "documentNumber": "1199280194588092",
          "identificationType": "NATIONAL_ID",
          "dateOfBirth": "1992-09-07",
          "gender": "MALE",
          "civilStatus": "SINGLE",
          "membershipType": "HEAD",
          "fullName": "Xxx IMANIRAGABA"
        },
        "villageId": "70f3b7b1-0797-499c-b070-ca87f13cb58f",
        "status": "ACTIVE",
        "changeStatusReason": null,
        "targetGroup": null,
        "villageLocation": null,
        "cutOff": null,
        "members": null,
        "level": null
      },
      {
        "id": "4e03345e-c38b-4aa1-ab19-99655acb144e",
        "code": "24-2201-3811-11",
        "lodaCode": "24-2201-3811-11",
        "size": 1,
        "score": 0.32,
        "scoringStatus": "FINISHED",
        "ubudeheCategory": null,
        "head": {
          "id": "691c1730-7407-460a-94b9-cdb41aba8c20",
          "firstName": "Pierre Celestin",
          "lastName": "HABIYAREMYE",
          "documentNumber": "1198280106944013",
          "identificationType": "NATIONAL_ID",
          "dateOfBirth": "1982-08-05",
          "gender": "MALE",
          "civilStatus": "SINGLE",
          "membershipType": "HEAD",
          "fullName": "Pierre Celestin HABIYAREMYE"
        },
        "villageId": "70f3b7b1-0797-499c-b070-ca87f13cb58f",
        "status": "ACTIVE",
        "changeStatusReason": null,
        "targetGroup": null,
        "villageLocation": null,
        "cutOff": null,
        "members": null,
        "level": null
      },
      {
        "id": "5eb8ce3c-881b-4da5-b2f2-0235cbf13e2f",
        "code": "24-6847-0477-11",
        "lodaCode": "24-6847-0477-11",
        "size": 1,
        "score": 0.063,
        "scoringStatus": "FINISHED",
        "ubudeheCategory": null,
        "head": {
          "id": "397a8090-e9d2-42c1-bda2-fc2e1c78e181",
          "firstName": "Fidele",
          "lastName": "HABIMANA",
          "documentNumber": "1199480189982075",
          "identificationType": "NATIONAL_ID",
          "dateOfBirth": "1994-01-01",
          "gender": "MALE",
          "civilStatus": "SINGLE",
          "membershipType": "HEAD",
          "fullName": "Fidele HABIMANA"
        },
        "villageId": "70f3b7b1-0797-499c-b070-ca87f13cb58f",
        "status": "ACTIVE",
        "changeStatusReason": null,
        "targetGroup": null,
        "villageLocation": null,
        "cutOff": null,
        "members": null,
        "level": null
      }
    ],
    "pageable": {
      "sort": {
        "unsorted": true,
        "sorted": false,
        "empty": true
      },
      "pageNumber": 0,
      "pageSize": 5,
      "offset": 0,
      "paged": true,
      "unpaged": false
    },
    "totalElements": 568765,
    "totalPages": 113753,
    "last": false,
    "numberOfElements": 5,
    "first": true,
    "sort": {
      "unsorted": true,
      "sorted": false,
      "empty": true
    },
    "size": 5,
    "number": 0,
    "empty": false
  },
  "message": "success.message"
}
